…
```r
titanic
```

```
# A tibble: 1,309 x 14
   pclass survived name  sex     age sibsp parch ticket  fare cabin embarked
    <dbl>    <dbl> <chr> <chr> <dbl> <dbl> <dbl> <chr>  <dbl> <chr> <chr>   
 1      1        1 Alle~ fema~ 29        0     0 24160  211.  B5    S       
 2      1        1 Alli~ male   0.92     1     2 113781 152.  C22 ~ S       
 3      1        0 Alli~ fema~  2        1     2 113781 152.  C22 ~ S       
 4      1        0 Alli~ male  30        1     2 113781 152.  C22 ~ S       
 5      1        0 Alli~ fema~ 25        1     2 113781 152.  C22 ~ S       
 6      1        1 Ande~ male  48        0     0 19952   26.6 E12   S       
 7      1        1 Andr~ fema~ 63        1     0 13502   78.0 D7    S       
 8      1        0 Andr~ male  39        0     0 112050   0   A36   S       
 9      1        1 Appl~ fema~ 53        2     0 11769   51.5 C101  S       
10      1        0 Arta~ male  71        0     0 PC 17~  49.5 <NA>  C       
# ... with 1,299 more rows, and 3 more variables: boat <chr>, body <dbl>,
#   home.dest <chr>
```
…
```r
# column type을 변경
titanic2 <- read_csv("dataset/titanic3.csv", 
                     col_types = "iicfdiicdcfcic")
titanic2
```

```
# A tibble: 1,309 x 14
   pclass survived name  sex     age sibsp parch ticket  fare cabin embarked
    <int>    <int> <chr> <fct> <dbl> <int> <int> <chr>  <dbl> <chr> <fct>   
 1      1        1 Alle~ fema~ 29        0     0 24160  211.  B5    S       
 2      1        1 Alli~ male   0.92     1     2 113781 152.  C22 ~ S       
 3      1        0 Alli~ fema~  2        1     2 113781 152.  C22 ~ S       
 4      1        0 Alli~ male  30        1     2 113781 152.  C22 ~ S       
 5      1        0 Alli~ fema~ 25        1     2 113781 152.  C22 ~ S       
 6      1        1 Ande~ male  48        0     0 19952   26.6 E12   S       
 7      1        1 Andr~ fema~ 63        1     0 13502   78.0 D7    S       
 8      1        0 Andr~ male  39        0     0 112050   0   A36   S       
 9      1        1 Appl~ fema~ 53        2     0 11769   51.5 C101  S       
10      1        0 Arta~ male  71        0     0 PC 17~  49.5 <NA>  C       
# ... with 1,299 more rows, and 3 more variables: boat <chr>, body <int>,
#   home.dest <chr>
```

```r
# 특정 변수만 불러오기
titanic3 <- read_csv("dataset/titanic3.csv", 
                     col_types = cols_only(
                       pclass = col_integer(), 
                       survived = col_integer(), 
                       sex = col_factor(), 
                       age = col_double()
                     ))
titanic3
```

```
# A tibble: 1,309 x 4
   pclass survived sex      age
    <int>    <int> <fct>  <dbl>
 1      1        1 female 29   
 2      1        1 male    0.92
 3      1        0 female  2   
 4      1        0 male   30   
 5      1        0 female 25   
 6      1        1 male   48   
 7      1        1 female 63   
 8      1        0 male   39   
 9      1        1 female 53   
10      1        0 male   71   
# ... with 1,299 more rows
```
…
```
필요한 패키지를 로딩중입니다: readxl
```

```r
covid19 <- read_xlsx("dataset/owid-covid-data.xlsx")
covid19
```

```
# A tibble: 12,669 x 16
   iso_code location date  total_cases new_cases total_deaths new_deaths
   <chr>    <chr>    <chr>       <dbl>     <dbl>        <dbl>      <dbl>
 1 ABW      Aruba    2020~           2         2            0          0
 2 ABW      Aruba    2020~           4         2            0          0
 3 ABW      Aruba    2020~          12         8            0          0
 4 ABW      Aruba    2020~          17         5            0          0
 5 ABW      Aruba    2020~          19         2            0          0
 6 ABW      Aruba    2020~          28         9            0          0
 7 ABW      Aruba    2020~          28         0            0          0
 8 ABW      Aruba    2020~          28         0            0          0
 9 ABW      Aruba    2020~          50        22            0          0
10 ABW      Aruba    2020~          55         5            0          0
# ... with 12,659 more rows, and 9 more variables:
#   total_cases_per_million <dbl>, new_cases_per_million <dbl>,
#   total_deaths_per_million <dbl>, new_deaths_per_million <dbl>,
#   total_tests <dbl>, new_tests <dbl>, total_tests_per_thousand <dbl>,
#   new_tests_per_thousand <dbl>, tests_units <chr>
```
…
```r
as_tibble(iris)
```

```
# A tibble: 150 x 5
   Sepal.Length Sepal.Width Petal.Length Petal.Width Species
          <dbl>       <dbl>        <dbl>       <dbl> <fct>  
 1          5.1         3.5          1.4         0.2 setosa 
 2          4.9         3            1.4         0.2 setosa 
 3          4.7         3.2          1.3         0.2 setosa 
 4          4.6         3.1          1.5         0.2 setosa 
 5          5           3.6          1.4         0.2 setosa 
 6          5.4         3.9          1.7         0.4 setosa 
 7          4.6         3.4          1.4         0.3 setosa 
 8          5           3.4          1.5         0.2 setosa 
 9          4.4         2.9          1.4         0.2 setosa 
10          4.9         3.1          1.5         0.1 setosa 
# ... with 140 more rows
```
…
- 개별 벡터로부터 tibble 생성 가능
- 방금 생성한 변수 참조 가능
- 문자형 변수가 입력된 경우 데이터 프레임과 다르게 별다른 옵션이 없어도 강제로 factor로 형 변환을 하지 않음

\footnotesize


```r
# 벡터로부터 tibble 객체 생성
tibble(x = letters, y = rnorm(26), z = y^2)
```

```
# A tibble: 26 x 3
   x          y      z
   <chr>  <dbl>  <dbl>
 1 a     -0.514 0.265 
 2 b      1.67  2.80  
 3 c     -0.176 0.0309
 4 d     -0.628 0.394 
 5 e      1.68  2.83  
 6 f     -0.428 0.183 
 7 g     -0.721 0.519 
 8 h      0.784 0.615 
 9 i     -0.976 0.953 
10 j     -0.531 0.282 
# ... with 16 more rows
```
…
```r
dd <- as_tibble(iris)
dd
```

```
# A tibble: 150 x 5
   Sepal.Length Sepal.Width Petal.Length Petal.Width Species
          <dbl>       <dbl>        <dbl>       <dbl> <fct>  
 1          5.1         3.5          1.4         0.2 setosa 
 2          4.9         3            1.4         0.2 setosa 
 3          4.7         3.2          1.3         0.2 setosa 
 4          4.6         3.1          1.5         0.2 setosa 
 5          5           3.6          1.4         0.2 setosa 
 6          5.4         3.9          1.7         0.4 setosa 
 7          4.6         3.4          1.4         0.3 setosa 
 8          5           3.4          1.5         0.2 setosa 
 9          4.4         2.9          1.4         0.2 setosa 
10          4.9         3.1          1.5         0.1 setosa 
# ... with 140 more rows
```
…
