…
```
필요한 패키지를 로딩중입니다: readxl
```

```r
covid19 <- read_xlsx("dataset/covid-19-dataset/owid-covid-data.xlsx")
covid19
```

```
# A tibble: 14,315 x 16
   iso_code location date       total_cases new_cases total_deaths new_deaths
   <chr>    <chr>    <chr>            <dbl>     <dbl>        <dbl>      <dbl>
 1 ABW      Aruba    2020-03-13           2         2            0          0
 2 ABW      Aruba    2020-03-20           4         2            0          0
 3 ABW      Aruba    2020-03-24          12         8            0          0
 4 ABW      Aruba    2020-03-25          17         5            0          0
 5 ABW      Aruba    2020-03-26          19         2            0          0
 6 ABW      Aruba    2020-03-27          28         9            0          0
 7 ABW      Aruba    2020-03-28          28         0            0          0
 8 ABW      Aruba    2020-03-29          28         0            0          0
 9 ABW      Aruba    2020-03-30          50        22            0          0
10 ABW      Aruba    2020-04-01          55         5            0          0
# ... with 14,305 more rows, and 9 more variables:
#   total_cases_per_million <dbl>, new_cases_per_million <dbl>,
#   total_deaths_per_million <dbl>, new_deaths_per_million <dbl>,
#   total_tests <dbl>, new_tests <dbl>, total_tests_per_thousand <dbl>,
#   new_tests_per_thousand <dbl>, tests_units <chr>
```
…
