…
```r
# 시내 연비를 기준으로 오름차순 정렬
## R 기본 문법 사용
# mpg[order(mpg$cty), ]

## arrange 함수 사용
# arrange(mpg, cty)

## pipe 사용
mpg_asc <- mpg %>% arrange(cty)
mpg_asc %>% print
```

```
# A tibble: 234 × 11
   manufacturer model      displ  year   cyl trans drv     cty   hwy fl    class
   <chr>        <chr>      <dbl> <int> <int> <chr> <chr> <int> <int> <chr> <chr>
 1 dodge        dakota pi…   4.7  2008     8 auto… 4         9    12 e     pick…
 2 dodge        durango 4…   4.7  2008     8 auto… 4         9    12 e     suv  
 3 dodge        ram 1500 …   4.7  2008     8 auto… 4         9    12 e     pick…
 4 dodge        ram 1500 …   4.7  2008     8 manu… 4         9    12 e     pick…
 5 jeep         grand che…   4.7  2008     8 auto… 4         9    12 e     suv  
 6 chevrolet    c1500 sub…   5.3  2008     8 auto… r        11    15 e     suv  
 7 chevrolet    k1500 tah…   5.3  2008     8 auto… 4        11    14 e     suv  
 8 chevrolet    k1500 tah…   5.7  1999     8 auto… 4        11    15 r     suv  
 9 dodge        caravan 2…   3.3  2008     6 auto… f        11    17 e     mini…
10 dodge        dakota pi…   5.2  1999     8 manu… 4        11    17 r     pick…
# … with 224 more rows
```

```r
# 시내 연비는 오름차순, 차량 타입은 내림차순(알파벳 역순) 정렬
## R 기본 문법 사용
### 문자형 벡터의 순위 계산을 위해 rank() 함수 사용
mpg_sortb <- mpg[order(mpg$cty, -rank(mpg$class)), ]

## arrange 함수 사용
mpg_sortt <- mpg %>% arrange(cty, desc(class))
mpg_sortt %>% print
```

```
# A tibble: 234 × 11
   manufacturer model      displ  year   cyl trans drv     cty   hwy fl    class
   <chr>        <chr>      <dbl> <int> <int> <chr> <chr> <int> <int> <chr> <chr>
 1 dodge        durango 4…   4.7  2008     8 auto… 4         9    12 e     suv  
 2 jeep         grand che…   4.7  2008     8 auto… 4         9    12 e     suv  
 3 dodge        dakota pi…   4.7  2008     8 auto… 4         9    12 e     pick…
 4 dodge        ram 1500 …   4.7  2008     8 auto… 4         9    12 e     pick…
 5 dodge        ram 1500 …   4.7  2008     8 manu… 4         9    12 e     pick…
 6 chevrolet    c1500 sub…   5.3  2008     8 auto… r        11    15 e     suv  
 7 chevrolet    k1500 tah…   5.3  2008     8 auto… 4        11    14 e     suv  
 8 chevrolet    k1500 tah…   5.7  1999     8 auto… 4        11    15 r     suv  
 9 dodge        durango 4…   5.2  1999     8 auto… 4        11    16 r     suv  
10 dodge        durango 4…   5.9  1999     8 auto… 4        11    15 r     suv  
# … with 224 more rows
```
…
\footnotesize


```r
`연비` <- mpg %>% 
  transmute(cty_kpl = cty*kpl, 
            hwy_kpl = hwy*kpl, 
            cty_raw = cty_kpl/kpl,
            hwy_raw = hwy_kpl/kpl)
`연비` %>% print
```

```
# A tibble: 234 × 4
   cty_kpl hwy_kpl cty_raw hwy_raw
     <dbl>   <dbl>   <dbl>   <dbl>
 1    7.65    12.3      18      29
 2    8.92    12.3      21      29
 3    8.50    13.2      20      31
 4    8.92    12.7      21      30
 5    6.80    11.0      16      26
 6    7.65    11.0      18      26
 7    7.65    11.5      18      27
 8    7.65    11.0      18      26
 9    6.80    10.6      16      25
10    8.50    11.9      20      28
# … with 224 more rows
```
…
```r
## 통계량 계산
by_mpg %>% 
  summarise(mean_cty = mean(cty), 
            mean_hwy = mean(hwy)) %>% 
  print
```

```
`summarise()` has grouped output by 'model'. You can override using the
`.groups` argument.
```

```
# A tibble: 76 × 4
# Groups:   model [38]
   model        year mean_cty mean_hwy
   <chr>       <int>    <dbl>    <dbl>
 1 4runner 4wd  1999     15.2     19  
 2 4runner 4wd  2008     15       18.5
 3 a4           1999     18.2     27.5
 4 a4           2008     19.7     29.3
 5 a4 quattro   1999     16.5     25.2
 6 a4 quattro   2008     17.8     26.2
 7 a6 quattro   1999     15       24  
 8 a6 quattro   2008     16.5     24  
 9 altima       1999     20       28  
10 altima       2008     21       29  
# … with 66 more rows
```
…
```r
# 각 모델 별 첫 번째 데이터만 추출
slice_mpg_grp <- mpg %>% 
  group_by(model) %>% 
  slice(1) %>% 
  arrange(model)

slice_mpg_grp %>% print
```

```
# A tibble: 38 × 11
# Groups:   model [38]
   manufacturer model      displ  year   cyl trans drv     cty   hwy fl    class
   <chr>        <chr>      <dbl> <int> <int> <chr> <chr> <int> <int> <chr> <chr>
 1 toyota       4runner 4…   2.7  1999     4 manu… 4        15    20 r     suv  
 2 audi         a4           1.8  1999     4 auto… f        18    29 p     comp…
 3 audi         a4 quattro   1.8  1999     4 manu… 4        18    26 p     comp…
 4 audi         a6 quattro   2.8  1999     6 auto… 4        15    24 p     mids…
 5 nissan       altima       2.4  1999     4 manu… f        21    29 r     comp…
 6 chevrolet    c1500 sub…   5.3  2008     8 auto… r        14    20 r     suv  
 7 toyota       camry        2.2  1999     4 manu… f        21    29 r     mids…
 8 toyota       camry sol…   2.2  1999     4 auto… f        21    27 r     comp…
 9 dodge        caravan 2…   2.4  1999     4 auto… f        18    24 r     mini…
10 honda        civic        1.6  1999     4 manu… f        28    33 r     subc…
# … with 28 more rows
```
…
> **행(row, case, observation) 조작 동사: 선택한 변수를 기준으로 중복 없는 유일한(unique)한 행 추출 시 사용**

- R base 패키지의 `unique()` 또는 `unqiue.data.frame()`과 유사하게 작동하지만 처리 속도 면에서 뛰어남

\footnotesize


```r
# mpg 데이터에서 중복데이터 제거 (모든 열 기준)
mpg_uniq <- mpg %>% distinct()
mpg_uniq %>% print
```

```
# A tibble: 225 × 11
   manufacturer model      displ  year   cyl trans drv     cty   hwy fl    class
   <chr>        <chr>      <dbl> <int> <int> <chr> <chr> <int> <int> <chr> <chr>
 1 audi         a4           1.8  1999     4 auto… f        18    29 p     comp…
 2 audi         a4           1.8  1999     4 manu… f        21    29 p     comp…
 3 audi         a4           2    2008     4 manu… f        20    31 p     comp…
 4 audi         a4           2    2008     4 auto… f        21    30 p     comp…
 5 audi         a4           2.8  1999     6 auto… f        16    26 p     comp…
 6 audi         a4           2.8  1999     6 manu… f        18    26 p     comp…
 7 audi         a4           3.1  2008     6 auto… f        18    27 p     comp…
 8 audi         a4 quattro   1.8  1999     4 manu… 4        18    26 p     comp…
 9 audi         a4 quattro   1.8  1999     4 auto… 4        16    25 p     comp…
10 audi         a4 quattro   2    2008     4 manu… 4        20    28 p     comp…
# … with 215 more rows
```
…
```r
## cty를 city_mpg, hwy를 hw_mpg로 변경
mpg %>% 
  rename(city_mpg = cty, 
         hw_mpg = hwy) %>% 
  print
```

```
# A tibble: 234 × 11
   manufacturer model  displ  year   cyl trans drv   city_mpg hw_mpg fl    class
   <chr>        <chr>  <dbl> <int> <int> <chr> <chr>    <int>  <int> <chr> <chr>
 1 audi         a4       1.8  1999     4 auto… f           18     29 p     comp…
 2 audi         a4       1.8  1999     4 manu… f           21     29 p     comp…
 3 audi         a4       2    2008     4 manu… f           20     31 p     comp…
 4 audi         a4       2    2008     4 auto… f           21     30 p     comp…
 5 audi         a4       2.8  1999     6 auto… f           16     26 p     comp…
 6 audi         a4       2.8  1999     6 manu… f           18     26 p     comp…
 7 audi         a4       3.1  2008     6 auto… f           18     27 p     comp…
 8 audi         a4 qu…   1.8  1999     4 manu… 4           18     26 p     comp…
 9 audi         a4 qu…   1.8  1999     4 auto… 4           16     25 p     comp…
10 audi         a4 qu…   2    2008     4 manu… 4           20     28 p     comp…
# … with 224 more rows
```
…
```r
# 제조사, 년도별 데이터 개수 
mpg %>% 
  group_by(manufacturer, year) %>% 
  tally %>% 
  ungroup %>% 
  print
```

```
# A tibble: 30 × 3
   manufacturer  year     n
   <chr>        <int> <int>
 1 audi          1999     9
 2 audi          2008     9
 3 chevrolet     1999     7
 4 chevrolet     2008    12
 5 dodge         1999    16
 6 dodge         2008    21
 7 ford          1999    15
 8 ford          2008    10
 9 honda         1999     5
10 honda         2008     4
# … with 20 more rows
```
…
- `tally()` 함수와 유사하나 개수 집계 전 `group_by()`와 집계 후 `ungroup()`을 실행

\footnotesize


```r
# 제조사, 년도별 데이터 개수: tally() 예시와 비교
mpg %>% 
  count(manufacturer, year) %>% 
  print
```

```
# A tibble: 30 × 3
   manufacturer  year     n
   <chr>        <int> <int>
 1 audi          1999     9
 2 audi          2008     9
 3 chevrolet     1999     7
 4 chevrolet     2008    12
 5 dodge         1999    16
 6 dodge         2008    21
 7 ford          1999    15
 8 ford          2008    10
 9 honda         1999     5
10 honda         2008     4
# … with 20 more rows
```
…
```
`summarise()` has grouped output by 'manufacturer'. You can override using the
`.groups` argument.
```

```
# A tibble: 30 × 5
# Groups:   manufacturer [15]
   manufacturer  year     N mean_displ mean_hwy
   <chr>        <int> <int>      <dbl>    <dbl>
 1 audi          1999     9       2.36     17.1
 2 audi          2008     9       2.73     18.1
 3 chevrolet     1999     7       4.97     15.1
 4 chevrolet     2008    12       5.12     14.9
 5 dodge         1999    16       4.32     13.4
 6 dodge         2008    21       4.42     13.0
 7 ford          1999    15       4.45     13.9
 8 ford          2008    10       4.66     14.1
 9 honda         1999     5       1.6      24.8
10 honda         2008     4       1.85     24  
# … with 20 more rows
```
…
> 변수 선택과 변수명 변경을 동시에 수행

\footnotesize


```r
# select_all() 예시
## mpg 데이터셋의 모든 변수명을 대문자로 변경
mpg %>% 
  select_all(~toupper(.)) %>% 
  print
```

```
# A tibble: 234 × 11
   MANUFACTURER MODEL      DISPL  YEAR   CYL TRANS DRV     CTY   HWY FL    CLASS
   <chr>        <chr>      <dbl> <int> <int> <chr> <chr> <int> <int> <chr> <chr>
 1 audi         a4           1.8  1999     4 auto… f        18    29 p     comp…
 2 audi         a4           1.8  1999     4 manu… f        21    29 p     comp…
 3 audi         a4           2    2008     4 manu… f        20    31 p     comp…
 4 audi         a4           2    2008     4 auto… f        21    30 p     comp…
 5 audi         a4           2.8  1999     6 auto… f        16    26 p     comp…
 6 audi         a4           2.8  1999     6 manu… f        18    26 p     comp…
 7 audi         a4           3.1  2008     6 auto… f        18    27 p     comp…
 8 audi         a4 quattro   1.8  1999     4 manu… 4        18    26 p     comp…
 9 audi         a4 quattro   1.8  1999     4 auto… 4        16    25 p     comp…
10 audi         a4 quattro   2    2008     4 manu… 4        20    28 p     comp…
# … with 224 more rows
```

```r
# select_if() 예시
## 문자형 변수를 선택하고 선택한 변수의 이름을 대문자로 변경
mpg %>% 
  select_if(~ is.character(.), ~ toupper(.)) %>% 
  print
```

```
# A tibble: 234 × 6
   MANUFACTURER MODEL      TRANS      DRV   FL    CLASS  
   <chr>        <chr>      <chr>      <chr> <chr> <chr>  
 1 audi         a4         auto(l5)   f     p     compact
 2 audi         a4         manual(m5) f     p     compact
 3 audi         a4         manual(m6) f     p     compact
 4 audi         a4         auto(av)   f     p     compact
 5 audi         a4         auto(l5)   f     p     compact
 6 audi         a4         manual(m5) f     p     compact
 7 audi         a4         auto(av)   f     p     compact
 8 audi         a4 quattro manual(m5) 4     p     compact
 9 audi         a4 quattro auto(l5)   4     p     compact
10 audi         a4 quattro manual(m6) 4     p     compact
# … with 224 more rows
```

```r
# select_at() 예시
## model에서 cty 까지 변수를 선택하고 선택한 변수명을 대문자로 변경
mpg %>% 
  select_at(vars(model:cty), ~ toupper(.)) %>% 
  print
```

```
# A tibble: 234 × 7
   MODEL      DISPL  YEAR   CYL TRANS      DRV     CTY
   <chr>      <dbl> <int> <int> <chr>      <chr> <int>
 1 a4           1.8  1999     4 auto(l5)   f        18
 2 a4           1.8  1999     4 manual(m5) f        21
 3 a4           2    2008     4 manual(m6) f        20
 4 a4           2    2008     4 auto(av)   f        21
 5 a4           2.8  1999     6 auto(l5)   f        16
 6 a4           2.8  1999     6 manual(m5) f        18
 7 a4           3.1  2008     6 auto(av)   f        18
 8 a4 quattro   1.8  1999     4 manual(m5) 4        18
 9 a4 quattro   1.8  1999     4 auto(l5)   4        16
10 a4 quattro   2    2008     4 manual(m6) 4        20
# … with 224 more rows
```
…
```
필요한 패키지를 로딩중입니다: nycflights13
```

 \normalsize

- `flights`: 336,776 건의 비행에 대한 기록과 19개의 변수로 구성되어 있는 데이터셋

\footnotesize


```
# A tibble: 336,776 × 19
    year month   day dep_time sched_dep_time dep_delay arr_time sched_arr_time
   <int> <int> <int>    <int>          <int>     <dbl>    <int>          <int>
 1  2013     1     1      517            515         2      830            819
 2  2013     1     1      533            529         4      850            830
 3  2013     1     1      542            540         2      923            850
 4  2013     1     1      544            545        -1     1004           1022
 5  2013     1     1      554            600        -6      812            837
 6  2013     1     1      554            558        -4      740            728
 7  2013     1     1      555            600        -5      913            854
 8  2013     1     1      557            600        -3      709            723
 9  2013     1     1      557            600        -3      838            846
10  2013     1     1      558            600        -2      753            745
# … with 336,766 more rows, and 11 more variables: arr_delay <dbl>,
#   carrier <chr>, flight <int>, tailnum <chr>, origin <chr>, dest <chr>,
#   air_time <dbl>, distance <dbl>, hour <dbl>, minute <dbl>, time_hour <dttm>
```
…
 \normalsize

- `airports`: 각 공항에 대한 정보를 포함한 데이터셋이고 `faa`는 공항 코드

\footnotesize


```
# A tibble: 1,458 × 8
   faa   name                             lat    lon   alt    tz dst   tzone    
   <chr> <chr>                          <dbl>  <dbl> <dbl> <dbl> <chr> <chr>    
 1 04G   Lansdowne Airport               41.1  -80.6  1044    -5 A     America/…
 2 06A   Moton Field Municipal Airport   32.5  -85.7   264    -6 A     America/…
 3 06C   Schaumburg Regional             42.0  -88.1   801    -6 A     America/…
 4 06N   Randall Airport                 41.4  -74.4   523    -5 A     America/…
 5 09J   Jekyll Island Airport           31.1  -81.4    11    -5 A     America/…
 6 0A9   Elizabethton Municipal Airport  36.4  -82.2  1593    -5 A     America/…
 7 0G6   Williams County Airport         41.5  -84.5   730    -5 A     America/…
 8 0G7   Finger Lakes Regional Airport   42.9  -76.8   492    -5 A     America/…
 9 0P2   Shoestring Aviation Airfield    39.8  -76.6  1000    -5 U     America/…
10 0S9   Jefferson County Intl           48.1 -123.    108    -8 A     America/…
# … with 1,448 more rows
```
…
 \normalsize



- `planes`: 항공기 정보(제조사, 일련번호, 유형 등)에 대한 정보를 포함한 데이터셋

\footnotesize


```
# A tibble: 3,322 × 9
   tailnum  year type              manufacturer model engines seats speed engine
   <chr>   <int> <chr>             <chr>        <chr>   <int> <int> <int> <chr> 
 1 N10156   2004 Fixed wing multi… EMBRAER      EMB-…       2    55    NA Turbo…
 2 N102UW   1998 Fixed wing multi… AIRBUS INDU… A320…       2   182    NA Turbo…
 3 N103US   1999 Fixed wing multi… AIRBUS INDU… A320…       2   182    NA Turbo…
 4 N104UW   1999 Fixed wing multi… AIRBUS INDU… A320…       2   182    NA Turbo…
 5 N10575   2002 Fixed wing multi… EMBRAER      EMB-…       2    55    NA Turbo…
 6 N105UW   1999 Fixed wing multi… AIRBUS INDU… A320…       2   182    NA Turbo…
 7 N107US   1999 Fixed wing multi… AIRBUS INDU… A320…       2   182    NA Turbo…
 8 N108UW   1999 Fixed wing multi… AIRBUS INDU… A320…       2   182    NA Turbo…
 9 N109UW   1999 Fixed wing multi… AIRBUS INDU… A320…       2   182    NA Turbo…
10 N110UW   1999 Fixed wing multi… AIRBUS INDU… A320…       2   182    NA Turbo…
# … with 3,312 more rows
```
…
 \normalsize

- `weather`: 뉴욕시 각 공항 별 날씨 정보

\footnotesize


```
# A tibble: 26,115 × 15
   origin  year month   day  hour  temp  dewp humid wind_dir wind_speed
   <chr>  <int> <int> <int> <int> <dbl> <dbl> <dbl>    <dbl>      <dbl>
 1 EWR     2013     1     1     1  39.0  26.1  59.4      270      10.4 
 2 EWR     2013     1     1     2  39.0  27.0  61.6      250       8.06
 3 EWR     2013     1     1     3  39.0  28.0  64.4      240      11.5 
 4 EWR     2013     1     1     4  39.9  28.0  62.2      250      12.7 
 5 EWR     2013     1     1     5  39.0  28.0  64.4      260      12.7 
 6 EWR     2013     1     1     6  37.9  28.0  67.2      240      11.5 
 7 EWR     2013     1     1     7  39.0  28.0  64.4      240      15.0 
 8 EWR     2013     1     1     8  39.9  28.0  62.2      250      10.4 
 9 EWR     2013     1     1     9  39.9  28.0  62.2      260      15.0 
10 EWR     2013     1     1    10  41    28.0  59.6      260      13.8 
# … with 26,105 more rows, and 5 more variables: wind_gust <dbl>, precip <dbl>,
#   pressure <dbl>, visib <dbl>, time_hour <dttm>
```
…
```r
# flights 데이터 간소화(일부 열만 추출)
flights2 <- flights %>% 
  select(year:day, hour, origin, dest, tailnum, carrier)

# flights2 와 airlines 병합
flights2 %>% 
  left_join(airlines, by = "carrier") %>% 
  print
```

```
# A tibble: 336,776 × 9
    year month   day  hour origin dest  tailnum carrier name                    
   <int> <int> <int> <dbl> <chr>  <chr> <chr>   <chr>   <chr>                   
 1  2013     1     1     5 EWR    IAH   N14228  UA      United Air Lines Inc.   
 2  2013     1     1     5 LGA    IAH   N24211  UA      United Air Lines Inc.   
 3  2013     1     1     5 JFK    MIA   N619AA  AA      American Airlines Inc.  
 4  2013     1     1     5 JFK    BQN   N804JB  B6      JetBlue Airways         
 5  2013     1     1     6 LGA    ATL   N668DN  DL      Delta Air Lines Inc.    
 6  2013     1     1     5 EWR    ORD   N39463  UA      United Air Lines Inc.   
 7  2013     1     1     6 EWR    FLL   N516JB  B6      JetBlue Airways         
 8  2013     1     1     6 LGA    IAD   N829AS  EV      ExpressJet Airlines Inc.
 9  2013     1     1     6 JFK    MCO   N593JB  B6      JetBlue Airways         
10  2013     1     1     6 LGA    ORD   N3ALAA  AA      American Airlines Inc.  
# … with 336,766 more rows
```

```r
# flights2와 airline, airports 병합
## airports 데이터 간소화
airports2 <- airports %>% 
  select(faa:name, airport_name = name) %>% 
  print
```

```
# A tibble: 1,458 × 2
   faa   airport_name                  
   <chr> <chr>                         
 1 04G   Lansdowne Airport             
 2 06A   Moton Field Municipal Airport 
 3 06C   Schaumburg Regional           
 4 06N   Randall Airport               
 5 09J   Jekyll Island Airport         
 6 0A9   Elizabethton Municipal Airport
 7 0G6   Williams County Airport       
 8 0G7   Finger Lakes Regional Airport 
 9 0P2   Shoestring Aviation Airfield  
10 0S9   Jefferson County Intl         
# … with 1,448 more rows
```

```r
flights2 %>% 
  left_join(airlines, by = "carrier") %>% 
  left_join(airports2, by = c("origin" = "faa")) %>% 
  print
```

```
# A tibble: 336,776 × 10
    year month   day  hour origin dest  tailnum carrier name        airport_name
   <int> <int> <int> <dbl> <chr>  <chr> <chr>   <chr>   <chr>       <chr>       
 1  2013     1     1     5 EWR    IAH   N14228  UA      United Air… Newark Libe…
 2  2013     1     1     5 LGA    IAH   N24211  UA      United Air… La Guardia  
 3  2013     1     1     5 JFK    MIA   N619AA  AA      American A… John F Kenn…
 4  2013     1     1     5 JFK    BQN   N804JB  B6      JetBlue Ai… John F Kenn…
 5  2013     1     1     6 LGA    ATL   N668DN  DL      Delta Air … La Guardia  
 6  2013     1     1     5 EWR    ORD   N39463  UA      United Air… Newark Libe…
 7  2013     1     1     6 EWR    FLL   N516JB  B6      JetBlue Ai… Newark Libe…
 8  2013     1     1     6 LGA    IAD   N829AS  EV      ExpressJet… La Guardia  
 9  2013     1     1     6 JFK    MCO   N593JB  B6      JetBlue Ai… John F Kenn…
10  2013     1     1     6 LGA    ORD   N3ALAA  AA      American A… La Guardia  
# … with 336,766 more rows
```
…
